%YAML 1.1
%TAG !u! tag:unity3d.com,2011:
--- !u!1001 &5000630030307194418
PrefabInstance:
  m_ObjectHideFlags: 0
  serializedVersion: 2
  m_Modification:
    serializedVersion: 3
    m_TransformParent: {fileID: 0}
    m_Modifications:
    - target: {fileID: -8679921383154817045, guid: fde9f069369935d4ab173b967619a21f,
        type: 3}
      propertyPath: m_LocalPosition.x
      value: 9.064463
      objectReference: {fileID: 0}
    - target: {fileID: -8679921383154817045, guid: fde9f069369935d4ab173b967619a21f,
        type: 3}
      propertyPath: m_LocalPosition.y
      value: 0
      objectReference: {fileID: 0}
    - target: {fileID: -8679921383154817045, guid: fde9f069369935d4ab173b967619a21f,
        type: 3}
      propertyPath: m_LocalPosition.z
      value: 33.817104
      objectReference: {fileID: 0}
    - target: {fileID: -8679921383154817045, guid: fde9f069369935d4ab173b967619a21f,
        type: 3}
      propertyPath: m_LocalRotation.w
      value: 1
      objectReference: {fileID: 0}
    - target: {fileID: -8679921383154817045, guid: fde9f069369935d4ab173b967619a21f,
        type: 3}
      propertyPath: m_LocalRotation.x
      value: 0
      objectReference: {fileID: 0}
    - target: {fileID: -8679921383154817045, guid: fde9f069369935d4ab173b967619a21f,
        type: 3}
      propertyPath: m_LocalRotation.y
      value: -0
      objectReference: {fileID: 0}
    - target: {fileID: -8679921383154817045, guid: fde9f069369935d4ab173b967619a21f,
        type: 3}
      propertyPath: m_LocalRotation.z
      value: -0
      objectReference: {fileID: 0}
    - target: {fileID: -8679921383154817045, guid: fde9f069369935d4ab173b967619a21f,
        type: 3}
      propertyPath: m_LocalEulerAnglesHint.x
      value: 0
      objectReference: {fileID: 0}
    - target: {fileID: -8679921383154817045, guid: fde9f069369935d4ab173b967619a21f,
        type: 3}
      propertyPath: m_LocalEulerAnglesHint.y
      value: 0
      objectReference: {fileID: 0}
    - target: {fileID: -8679921383154817045, guid: fde9f069369935d4ab173b967619a21f,
        type: 3}
      propertyPath: m_LocalEulerAnglesHint.z
      value: 0
      objectReference: {fileID: 0}
    - target: {fileID: -3840975916395447787, guid: fde9f069369935d4ab173b967619a21f,
        type: 3}
      propertyPath: m_Materials.Array.data[0]
      value: 
      objectReference: {fileID: 2100000, guid: 68e4d6ed3ef0a6e4697bbb1bbfc18545, type: 2}
    - target: {fileID: -117652863204786802, guid: fde9f069369935d4ab173b967619a21f,
        type: 3}
      propertyPath: m_Materials.Array.data[0]
      value: 
      objectReference: {fileID: 2100000, guid: 9e7f46a338da77344b564ac11a301584, type: 2}
    - target: {fileID: 919132149155446097, guid: fde9f069369935d4ab173b967619a21f,
        type: 3}
      propertyPath: m_Name
      value: Floor_Light_A810_Artek
      objectReference: {fileID: 0}
    - target: {fileID: 6332610952860335477, guid: fde9f069369935d4ab173b967619a21f,
        type: 3}
      propertyPath: m_Materials.Array.data[0]
      value: 
      objectReference: {fileID: 2100000, guid: 489e9dd91874804419246e8d63fec46c, type: 2}
    m_RemovedComponents: []
    m_RemovedGameObjects: []
    m_AddedGameObjects: []
    m_AddedComponents: []
  m_SourcePrefab: {fileID: 100100000, guid: fde9f069369935d4ab173b967619a21f, type: 3}
