%YAML 1.1
%TAG !u! tag:unity3d.com,2011:
--- !u!1001 &222549978129269766
PrefabInstance:
  m_ObjectHideFlags: 0
  serializedVersion: 2
  m_Modification:
    serializedVersion: 3
    m_TransformParent: {fileID: 0}
    m_Modifications:
    - target: {fileID: -8679921383154817045, guid: 7bd101076842d7346b0aa596058050c9,
        type: 3}
      propertyPath: m_LocalPosition.x
      value: 9.558576
      objectReference: {fileID: 0}
    - target: {fileID: -8679921383154817045, guid: 7bd101076842d7346b0aa596058050c9,
        type: 3}
      propertyPath: m_LocalPosition.y
      value: 0
      objectReference: {fileID: 0}
    - target: {fileID: -8679921383154817045, guid: 7bd101076842d7346b0aa596058050c9,
        type: 3}
      propertyPath: m_LocalPosition.z
      value: 30.448328
      objectReference: {fileID: 0}
    - target: {fileID: -8679921383154817045, guid: 7bd101076842d7346b0aa596058050c9,
        type: 3}
      propertyPath: m_LocalRotation.w
      value: 1
      objectReference: {fileID: 0}
    - target: {fileID: -8679921383154817045, guid: 7bd101076842d7346b0aa596058050c9,
        type: 3}
      propertyPath: m_LocalRotation.x
      value: 0
      objectReference: {fileID: 0}
    - target: {fileID: -8679921383154817045, guid: 7bd101076842d7346b0aa596058050c9,
        type: 3}
      propertyPath: m_LocalRotation.y
      value: -0
      objectReference: {fileID: 0}
    - target: {fileID: -8679921383154817045, guid: 7bd101076842d7346b0aa596058050c9,
        type: 3}
      propertyPath: m_LocalRotation.z
      value: -0
      objectReference: {fileID: 0}
    - target: {fileID: -8679921383154817045, guid: 7bd101076842d7346b0aa596058050c9,
        type: 3}
      propertyPath: m_LocalEulerAnglesHint.x
      value: 0
      objectReference: {fileID: 0}
    - target: {fileID: -8679921383154817045, guid: 7bd101076842d7346b0aa596058050c9,
        type: 3}
      propertyPath: m_LocalEulerAnglesHint.y
      value: 0
      objectReference: {fileID: 0}
    - target: {fileID: -8679921383154817045, guid: 7bd101076842d7346b0aa596058050c9,
        type: 3}
      propertyPath: m_LocalEulerAnglesHint.z
      value: 0
      objectReference: {fileID: 0}
    - target: {fileID: 501429845557809466, guid: 7bd101076842d7346b0aa596058050c9,
        type: 3}
      propertyPath: m_Materials.Array.data[0]
      value: 
      objectReference: {fileID: 2100000, guid: 3eafa5bc9acc1874fb8bd7fc2886fef4, type: 2}
    - target: {fileID: 919132149155446097, guid: 7bd101076842d7346b0aa596058050c9,
        type: 3}
      propertyPath: m_Name
      value: Sofa_SL03_Allemuir_Stirling
      objectReference: {fileID: 0}
    - target: {fileID: 2055756124909802805, guid: 7bd101076842d7346b0aa596058050c9,
        type: 3}
      propertyPath: m_Materials.Array.data[0]
      value: 
      objectReference: {fileID: 2100000, guid: 64f4d76808537e147af6665bb6fd49e3, type: 2}
    - target: {fileID: 9158519842114509901, guid: 7bd101076842d7346b0aa596058050c9,
        type: 3}
      propertyPath: m_Materials.Array.data[0]
      value: 
      objectReference: {fileID: 2100000, guid: 64f4d76808537e147af6665bb6fd49e3, type: 2}
    m_RemovedComponents: []
    m_RemovedGameObjects: []
    m_AddedGameObjects: []
    m_AddedComponents: []
  m_SourcePrefab: {fileID: 100100000, guid: 7bd101076842d7346b0aa596058050c9, type: 3}
