%YAML 1.1
%TAG !u! tag:unity3d.com,2011:
--- !u!1001 &2741578958532321889
PrefabInstance:
  m_ObjectHideFlags: 0
  serializedVersion: 2
  m_Modification:
    serializedVersion: 3
    m_TransformParent: {fileID: 0}
    m_Modifications:
    - target: {fileID: -8679921383154817045, guid: 82cfa2b3edc1e764e81cacbd57fc2cef,
        type: 3}
      propertyPath: m_LocalPosition.x
      value: 6.977969
      objectReference: {fileID: 0}
    - target: {fileID: -8679921383154817045, guid: 82cfa2b3edc1e764e81cacbd57fc2cef,
        type: 3}
      propertyPath: m_LocalPosition.y
      value: 0
      objectReference: {fileID: 0}
    - target: {fileID: -8679921383154817045, guid: 82cfa2b3edc1e764e81cacbd57fc2cef,
        type: 3}
      propertyPath: m_LocalPosition.z
      value: 34.853382
      objectReference: {fileID: 0}
    - target: {fileID: -8679921383154817045, guid: 82cfa2b3edc1e764e81cacbd57fc2cef,
        type: 3}
      propertyPath: m_LocalRotation.w
      value: 1
      objectReference: {fileID: 0}
    - target: {fileID: -8679921383154817045, guid: 82cfa2b3edc1e764e81cacbd57fc2cef,
        type: 3}
      propertyPath: m_LocalRotation.x
      value: 0
      objectReference: {fileID: 0}
    - target: {fileID: -8679921383154817045, guid: 82cfa2b3edc1e764e81cacbd57fc2cef,
        type: 3}
      propertyPath: m_LocalRotation.y
      value: -0
      objectReference: {fileID: 0}
    - target: {fileID: -8679921383154817045, guid: 82cfa2b3edc1e764e81cacbd57fc2cef,
        type: 3}
      propertyPath: m_LocalRotation.z
      value: -0
      objectReference: {fileID: 0}
    - target: {fileID: -8679921383154817045, guid: 82cfa2b3edc1e764e81cacbd57fc2cef,
        type: 3}
      propertyPath: m_LocalEulerAnglesHint.x
      value: 0
      objectReference: {fileID: 0}
    - target: {fileID: -8679921383154817045, guid: 82cfa2b3edc1e764e81cacbd57fc2cef,
        type: 3}
      propertyPath: m_LocalEulerAnglesHint.y
      value: 0
      objectReference: {fileID: 0}
    - target: {fileID: -8679921383154817045, guid: 82cfa2b3edc1e764e81cacbd57fc2cef,
        type: 3}
      propertyPath: m_LocalEulerAnglesHint.z
      value: 0
      objectReference: {fileID: 0}
    - target: {fileID: -4504538674096019689, guid: 82cfa2b3edc1e764e81cacbd57fc2cef,
        type: 3}
      propertyPath: m_Materials.Array.data[0]
      value: 
      objectReference: {fileID: 2100000, guid: 13a2a2ca908ae1e4a85dda51f6ad3bb2, type: 2}
    - target: {fileID: -518228623613303421, guid: 82cfa2b3edc1e764e81cacbd57fc2cef,
        type: 3}
      propertyPath: m_Materials.Array.data[0]
      value: 
      objectReference: {fileID: 2100000, guid: e1f1ac1894e5e9245ab4f89d3cb6c173, type: 2}
    - target: {fileID: 919132149155446097, guid: 82cfa2b3edc1e764e81cacbd57fc2cef,
        type: 3}
      propertyPath: m_Name
      value: Taper_Candle_Holders
      objectReference: {fileID: 0}
    m_RemovedComponents: []
    m_RemovedGameObjects: []
    m_AddedGameObjects: []
    m_AddedComponents: []
  m_SourcePrefab: {fileID: 100100000, guid: 82cfa2b3edc1e764e81cacbd57fc2cef, type: 3}
