{
    "folderName": "0000-model-one2345",
    "inputFolderName": "input",
    "outputFolderName": "output",
    "jobFilePath": "./job.sh",
    "modelFolderContent":[
        {
            "type": "local",
            "fileName": "one2345.sif",
            "url": "",
            "sha256": "",
            "server": "vault"
        },
        {
            "type": "extern",
            "fileName": "sam_vit_h_4b8939.pth",
            "url": "https://dl.fbaipublicfiles.com/segment_anything/sam_vit_h_4b8939.pth",
            "sha256": "a7bf3b02f3ebf1267aba913ff637d9a2d5c33d3173bb679e46d9f338c26f262e",
            "server": "vault"
        },
        {
            "type": "extern",
            "fileName": "indoor_ds_new.ckpt",
            "url": "https://huggingface.co/One-2-3-45/code/resolve/main/one2345_elev_est/tools/weights/indoor_ds_new.ckpt",
            "sha256": "be9ff88b323ec27889114719f668ae41aff7034b56a4c4acbd46b8b180b87ed3",
            "server": "vault"
        },
        {
            "type": "extern",
            "fileName": "ckpt_215000.pth",
            "url": "https://huggingface.co/One-2-3-45/code/resolve/main/SparseNeuS_demo_v1/exp/lod0/checkpoints/ckpt_215000.pth",
            "sha256": "888aaa8abde948358c26e4ef63df99f666438345c1dee301059967c5ce77b6ea",
            "server": "vault"
        },
        {
            "type": "extern",
            "fileName": "zero123-xl.ckpt",
            "url": "https://zero123.cs.columbia.edu/assets/zero123-xl.ckpt",
            "sha256": "bc4ea2f8696ed96495a756e178cab659de807bbae2d2df18987cf61c44070696",
            "server": "vault"
        },
        {
            "type": "extern_folder",
            "fileName": "u2net.onnx",
            "url": "https://github.com/danielgatis/rembg/releases/download/v0.0.0/u2net.onnx",
            "sha256": "",
            "server": "hpc",
            "folderName": ".u2net"
        }
    ]
}